REQUEST TYPE GET

REQUEST ARGS

page: int

REQUEST BODY

{}

RESPONSE TYPE JSON

RESPONSE BODY

{
    "content": [
        {   
            "id": 0,
            "nombre": "Grupo A",
            "descripcion": "Descripción del grupo",
            "creador": {
                "nombre": "Andrés",
                "apellido": "Blan"
            },
            "fechaAlta": 1753225458732,
            "fechaBaja": null
        },
        {   
            "id": 1,
            "nombre": "Grupo B",
            "descripcion": "Descripción del grupo",
            "creador": {
                "nombre": "Andrés",
                "apellido": "Blan"
            },
            "fechaAlta": 1753225458732,
            "fechaBaja": null
        },
        {   
            "id": 2,
            "nombre": "Grupo C",
            "descripcion": "Descripción del grupo",
            "creador": {
                "nombre": "Andrés",
                "apellido": "Blan"
            },
            "fechaAlta": 1753225458732,
            "fechaBaja": 1753225458732
        },
        {   
            "id": 3,
            "nombre": "Grupo D",
            "descripcion": "Descripción del grupo",
            "creador": {
                "nombre": "Andrés",
                "apellido": "Blan"
            },
            "fechaAlta": 1753225458732,
            "fechaBaja": null
        },
        {   
            "id": 4,
            "nombre": "Grupo E",
            "descripcion": "Descripción del grupo",
            "creador": {
                "nombre": "Andrés",
                "apellido": "Blan"
            },
            "fechaAlta": 1753225458732,
            "fechaBaja": null
        }
    ],
    "totalPages": 5,
    "totalElements": 50,
    "size": 10,
    "number": 0,
    "first": 0,
    "last": 4
}